{
  "agents" : {
    "agentA1" : {"entity" : "connectionA1", "team" : "A", "class" : "BasicAgent"},
    "agentA2" : {"entity" : "connectionA2", "team" : "A", "class" : "BasicAgent"},
    "agentA3" : {"entity" : "connectionA3", "team" : "A", "class" : "BasicAgent"},
    "agentA4" : {"entity" : "connectionA4", "team" : "A", "class" : "BasicAgent"},
    "agentA5" : {"entity" : "connectionA5", "team" : "A", "class" : "BasicAgent"},
    "agentA6" : {"entity" : "connectionA6", "team" : "A", "class" : "BasicAgent"}
  }
}
